module github.com/sylabs/singularity/v4

go 1.20

require (
	github.com/Netflix/go-expect v0.0.0-20220104043353-73e0943537d2
	github.com/ProtonMail/go-crypto v0.0.0-20230717121422-5aa5874ade95
	github.com/adigunhammedolalekan/registry-auth v0.0.0-20200730122110-8cde180a3a60
	github.com/apex/log v1.9.0
	github.com/astromechza/etcpwdparse v0.0.0-20170319193008-f0e5f0779716
	github.com/blang/semver/v4 v4.0.0
	github.com/buger/goterm v1.0.4
	github.com/buger/jsonparser v1.1.1
	github.com/container-orchestrated-devices/container-device-interface v0.6.1
	github.com/containernetworking/cni v1.1.2
	github.com/containernetworking/plugins v1.3.0
	github.com/containers/common v0.56.0
	github.com/containers/image/v5 v5.28.0
	github.com/cyphar/filepath-securejoin v0.2.4
	github.com/docker/cli v24.0.6+incompatible
	github.com/docker/distribution v2.8.2+incompatible
	github.com/docker/docker v24.0.6+incompatible
	github.com/docker/go-units v0.5.0
	github.com/fatih/color v1.15.0
	github.com/go-log/log v0.2.0
	github.com/google/go-containerregistry v0.16.1
	github.com/google/uuid v1.3.1
	github.com/gosimple/slug v1.13.1
	github.com/moby/term v0.5.0
	github.com/opencontainers/go-digest v1.0.0
	github.com/opencontainers/image-spec v1.1.0-rc5
	github.com/opencontainers/runc v1.1.9
	github.com/opencontainers/runtime-spec v1.1.0
	github.com/opencontainers/runtime-tools v0.9.1-0.20230317050512-e931285f4b69
	github.com/opencontainers/selinux v1.11.0
	github.com/opencontainers/umoci v0.4.7
	github.com/pelletier/go-toml/v2 v2.1.0
	github.com/pkg/errors v0.9.1
	github.com/samber/lo v1.38.1
	github.com/seccomp/libseccomp-golang v0.10.0
	github.com/shopspring/decimal v1.3.1
	github.com/sigstore/sigstore v1.7.3
	github.com/sirupsen/logrus v1.9.3
	github.com/spf13/cobra v1.7.0
	github.com/spf13/pflag v1.0.5
	github.com/sylabs/json-resp v0.9.0
	github.com/sylabs/oci-tools v0.5.0
	github.com/sylabs/scs-build-client v0.8.0
	github.com/sylabs/scs-key-client v0.7.3
	github.com/sylabs/scs-library-client v1.4.5
	github.com/sylabs/sif/v2 v2.13.0
	github.com/vbauerster/mpb/v8 v8.6.1
	golang.org/x/crypto v0.13.0
	golang.org/x/sys v0.12.0
	golang.org/x/term v0.12.0
	golang.org/x/text v0.13.0
	gopkg.in/yaml.v3 v3.0.1
	gotest.tools/v3 v3.5.1
	mvdan.cc/sh/v3 v3.7.0
)

require (
	github.com/AdamKorcz/go-fuzz-headers v0.0.0-20210319161527-f761c2329661 // indirect
	github.com/Azure/go-ansiterm v0.0.0-20230124172434-306776ec8161 // indirect
	github.com/BurntSushi/toml v1.3.2 // indirect
	github.com/Microsoft/go-winio v0.6.1 // indirect
	github.com/VividCortex/ewma v1.2.0 // indirect
	github.com/acarl005/stripansi v0.0.0-20180116102854-5a71ef0e047d // indirect
	github.com/alexflint/go-filemutex v1.2.0 // indirect
	github.com/asaskevich/govalidator v0.0.0-20230301143203-a9d515a09cc2 // indirect
	github.com/beorn7/perks v1.0.1 // indirect
	github.com/cespare/xxhash/v2 v2.2.0 // indirect
	github.com/cilium/ebpf v0.9.1 // indirect
	github.com/cloudflare/circl v1.3.3 // indirect
	github.com/containerd/containerd v1.7.6 // indirect
	github.com/containerd/stargz-snapshotter/estargz v0.14.3 // indirect
	github.com/containers/libtrust v0.0.0-20230121012942-c1716e8a8d01 // indirect
	github.com/containers/ocicrypt v1.1.8 // indirect
	github.com/containers/storage v1.50.2 // indirect
	github.com/coreos/go-iptables v0.6.0 // indirect
	github.com/coreos/go-systemd/v22 v22.5.0 // indirect
	github.com/cpuguy83/go-md2man/v2 v2.0.2 // indirect
	github.com/creack/pty v1.1.18 // indirect
	github.com/cyberphone/json-canonicalization v0.0.0-20230710064741-aa7fe85c7dbd // indirect
	github.com/d2g/dhcp4 v0.0.0-20170904100407-a1d1b6c41b1c // indirect
	github.com/d2g/dhcp4client v1.0.0 // indirect
	github.com/docker/docker-credential-helpers v0.8.0 // indirect
	github.com/docker/go-connections v0.4.0 // indirect
	github.com/docker/go-metrics v0.0.1 // indirect
	github.com/docker/libtrust v0.0.0-20160708172513-aabc10ec26b7 // indirect
	github.com/felixge/httpsnoop v1.0.3 // indirect
	github.com/fsnotify/fsnotify v1.6.0 // indirect
	github.com/garyburd/redigo v0.0.0-20150301180006-535138d7bcd7 // indirect
	github.com/go-jose/go-jose/v3 v3.0.0 // indirect
	github.com/go-openapi/analysis v0.21.4 // indirect
	github.com/go-openapi/errors v0.20.4 // indirect
	github.com/go-openapi/jsonpointer v0.19.6 // indirect
	github.com/go-openapi/jsonreference v0.20.2 // indirect
	github.com/go-openapi/loads v0.21.2 // indirect
	github.com/go-openapi/runtime v0.26.0 // indirect
	github.com/go-openapi/spec v0.20.9 // indirect
	github.com/go-openapi/strfmt v0.21.7 // indirect
	github.com/go-openapi/swag v0.22.4 // indirect
	github.com/go-openapi/validate v0.22.1 // indirect
	github.com/godbus/dbus/v5 v5.1.0 // indirect
	github.com/gogo/protobuf v1.3.2 // indirect
	github.com/golang/protobuf v1.5.3 // indirect
	github.com/google/go-cmp v0.5.9 // indirect
	github.com/gorilla/handlers v1.5.1 // indirect
	github.com/gorilla/mux v1.8.0 // indirect
	github.com/gorilla/websocket v1.5.0 // indirect
	github.com/gosimple/unidecode v1.0.1 // indirect
	github.com/hashicorp/errwrap v1.1.0 // indirect
	github.com/hashicorp/go-multierror v1.1.1 // indirect
	github.com/inconshreveable/mousetrap v1.1.0 // indirect
	github.com/josharian/intern v1.0.0 // indirect
	github.com/json-iterator/go v1.1.12 // indirect
	github.com/klauspost/compress v1.16.7 // indirect
	github.com/klauspost/pgzip v1.2.6 // indirect
	github.com/letsencrypt/boulder v0.0.0-20230213213521-fdfea0d469b6 // indirect
	github.com/mailru/easyjson v0.7.7 // indirect
	github.com/mattn/go-colorable v0.1.13 // indirect
	github.com/mattn/go-isatty v0.0.17 // indirect
	github.com/mattn/go-runewidth v0.0.15 // indirect
	github.com/mattn/go-shellwords v1.0.12 // indirect
	github.com/mattn/go-sqlite3 v1.14.17 // indirect
	github.com/matttproud/golang_protobuf_extensions v1.0.4 // indirect
	github.com/miekg/pkcs11 v1.1.1 // indirect
	github.com/mitchellh/go-homedir v1.1.0 // indirect
	github.com/mitchellh/mapstructure v1.5.0 // indirect
	github.com/moby/patternmatcher v0.5.0 // indirect
	github.com/moby/sys/mountinfo v0.6.2 // indirect
	github.com/moby/sys/sequential v0.5.0 // indirect
	github.com/modern-go/concurrent v0.0.0-20180306012644-bacd9c7ef1dd // indirect
	github.com/modern-go/reflect2 v1.0.2 // indirect
	github.com/networkplumbing/go-nft v0.3.0 // indirect
	github.com/oklog/ulid v1.3.1 // indirect
	github.com/proglottis/gpgme v0.1.3 // indirect
	github.com/prometheus/client_golang v1.16.0 // indirect
	github.com/prometheus/client_model v0.4.0 // indirect
	github.com/prometheus/common v0.44.0 // indirect
	github.com/prometheus/procfs v0.10.1 // indirect
	github.com/rivo/uniseg v0.4.4 // indirect
	github.com/rootless-containers/proto v0.1.0 // indirect
	github.com/russross/blackfriday/v2 v2.1.0 // indirect
	github.com/safchain/ethtool v0.3.0 // indirect
	github.com/secure-systems-lab/go-securesystemslib v0.7.0 // indirect
	github.com/sigstore/fulcio v1.4.0 // indirect
	github.com/sigstore/rekor v1.2.2 // indirect
	github.com/stefanberger/go-pkcs11uri v0.0.0-20201008174630-78d3cae3a980 // indirect
	github.com/syndtr/gocapability v0.0.0-20200815063812-42c35b437635 // indirect
	github.com/theupdateframework/go-tuf v0.5.2 // indirect
	github.com/titanous/rocacheck v0.0.0-20171023193734-afe73141d399 // indirect
	github.com/ulikunitz/xz v0.5.11 // indirect
	github.com/urfave/cli v1.22.14 // indirect
	github.com/vbatts/go-mtree v0.5.0 // indirect
	github.com/vbatts/tar-split v0.11.5 // indirect
	github.com/vishvananda/netlink v1.2.1-beta.2 // indirect
	github.com/vishvananda/netns v0.0.4 // indirect
	github.com/xeipuuv/gojsonpointer v0.0.0-20190905194746-02993c407bfb // indirect
	github.com/xeipuuv/gojsonreference v0.0.0-20180127040603-bd5ef7bd5415 // indirect
	github.com/xeipuuv/gojsonschema v1.2.0 // indirect
	go.mongodb.org/mongo-driver v1.11.3 // indirect
	go.mozilla.org/pkcs7 v0.0.0-20210826202110-33d05740a352 // indirect
	golang.org/x/exp v0.0.0-20230817173708-d852ddb80c63 // indirect
	golang.org/x/mod v0.12.0 // indirect
	golang.org/x/net v0.15.0 // indirect
	golang.org/x/sync v0.3.0 // indirect
	golang.org/x/tools v0.12.1-0.20230815132531-74c255bcf846 // indirect
	google.golang.org/genproto/googleapis/rpc v0.0.0-20230807174057-1744710a1577 // indirect
	google.golang.org/grpc v1.57.0 // indirect
	google.golang.org/protobuf v1.31.0 // indirect
	gopkg.in/go-jose/go-jose.v2 v2.6.1 // indirect
	gopkg.in/yaml.v2 v2.4.0 // indirect
	sigs.k8s.io/yaml v1.3.0 // indirect
)

replace oras.land/oras-go => github.com/sylabs/oras-go v1.2.4-0.20230628133146-a64659fc0454
